
{
  "header": {
    "event": "Allocation failed - JavaScript heap out of memory",
    "trigger": "FatalError",
    "filename": "report.20191015.134335.21800.0.001.json",
    "dumpEventTime": "2019-10-15T13:43:35Z",
    "dumpEventTimeStamp": "1571139815942",
    "processId": 21800,
    "cwd": "C:\\Users\\asus\\Desktop\\git2\\linkypharm-ui",
    "commandLine": [
      "node",
      "C:\\Users\\asus\\AppData\\Roaming\\npm\\\\node_modules\\@angular\\cli\\bin\\ng",
      "build",
      "--aot",
      "--prod",
      "--base-href",
      "https://Hamabenismail.github.io/linky/"
    ],
    "nodejsVersion": "v12.3.1",
    "wordSize": 64,
    "arch": "x64",
    "platform": "win32",
    "componentVersions": {
      "node": "12.3.1",
      "v8": "7.4.288.27-node.18",
      "uv": "1.29.1",
      "zlib": "1.2.11",
      "brotli": "1.0.7",
      "ares": "1.15.0",
      "modules": "72",
      "nghttp2": "1.38.0",
      "napi": "4",
      "llhttp": "1.1.3",
      "http_parser": "2.8.0",
      "openssl": "1.1.1b",
      "cldr": "35.1",
      "icu": "64.2",
      "tz": "2019a",
      "unicode": "12.1"
    },
    "release": {
      "name": "node",
      "headersUrl": "https://nodejs.org/download/release/v12.3.1/node-v12.3.1-headers.tar.gz",
      "sourceUrl": "https://nodejs.org/download/release/v12.3.1/node-v12.3.1.tar.gz",
      "libUrl": "https://nodejs.org/download/release/v12.3.1/win-x64/node.lib"
    },
    "osName": "Windows_NT",
    "osRelease": "10.0.17134",
    "osVersion": "Windows 10 Pro",
    "osMachine": "x86_64",
    "host": "DESKTOP-57IBM0I"
  },
  "javascriptStack": {
    "message": "No stack.",
    "stack": [
      "Unavailable."
    ]
  },
  "nativeStack": [
    {
      "pc": "0x00007ff6a5a054e9",
      "symbol": "std::basic_ostream<char,std::char_traits<char> >::operator<<+9161"
    },
    {
      "pc": "0x00007ff6a5a08dd4",
      "symbol": "std::basic_ostream<char,std::char_traits<char> >::operator<<+23732"
    },
    {
      "pc": "0x00007ff6a5a07df8",
      "symbol": "std::basic_ostream<char,std::char_traits<char> >::operator<<+19672"
    },
    {
      "pc": "0x00007ff6a5af0c9b",
      "symbol": "uv_loop_fork+48251"
    },
    {
      "pc": "0x00007ff6a5e28bce",
      "symbol": "v8::internal::Parser::ReportMessageAt+206"
    },
    {
      "pc": "0x00007ff6a5dfcc4a",
      "symbol": "v8::internal::wasm::StreamingDecoder::Fail+666"
    },
    {
      "pc": "0x00007ff6a5e9309c",
      "symbol": "v8::internal::Heap::CreateFillerObjectAt+2972"
    },
    {
      "pc": "0x00007ff6a5e9ae0f",
      "symbol": "v8::internal::LocalEmbedderHeapTracer::NotifyV8MarkingWorklistWasEmpty+5375"
    },
    {
      "pc": "0x00007ff6a5e91483",
      "symbol": "v8::internal::Heap::CollectGarbage+1235"
    },
    {
      "pc": "0x00007ff6a5e8fb84",
      "symbol": "v8::internal::GCTracer::AddScopeSample+1316"
    },
    {
      "pc": "0x00007ff6a5ed07b3",
      "symbol": "v8::internal::Factory::NewFillerObject+67"
    },
    {
      "pc": "0x00007ff6a61f76e6",
      "symbol": "v8::internal::OptimizingCompileDispatcher::Unblock+116966"
    },
    {
      "pc": "0x00007ff6a6692c16",
      "symbol": "v8::internal::NativesCollection<0>::GetScriptsSource+662454"
    }
  ],
  "javascriptHeap": {
    "totalMemory": 2150965248,
    "totalCommittedMemory": 2150965248,
    "usedMemory": 2086911760,
    "availableMemory": 49432744,
    "memoryLimit": 2197815296,
    "heapSpaces": {
      "read_only_space": {
        "memorySize": 524288,
        "committedMemory": 524288,
        "capacity": 523976,
        "used": 31712,
        "available": 492264
      },
      "new_space": {
        "memorySize": 2097152,
        "committedMemory": 2097152,
        "capacity": 1047952,
        "used": 248008,
        "available": 799944
      },
      "old_space": {
        "memorySize": 2073681920,
        "committedMemory": 2073681920,
        "capacity": 2041383232,
        "used": 2041140696,
        "available": 242536
      },
      "code_space": {
        "memorySize": 4358144,
        "committedMemory": 4358144,
        "capacity": 3838464,
        "used": 3838464,
        "available": 0
      },
      "map_space": {
        "memorySize": 36179968,
        "committedMemory": 36179968,
        "capacity": 7680080,
        "used": 7680080,
        "available": 0
      },
      "large_object_space": {
        "memorySize": 33501184,
        "committedMemory": 33501184,
        "capacity": 33422496,
        "used": 33422496,
        "available": 0
      },
      "code_large_object_space": {
        "memorySize": 622592,
        "committedMemory": 622592,
        "capacity": 550304,
        "used": 550304,
        "available": 0
      },
      "new_large_object_space": {
        "memorySize": 0,
        "committedMemory": 0,
        "capacity": 1047952,
        "used": 0,
        "available": 1047952
      }
    }
  },
  "resourceUsage": {
    "userCpuSeconds": 131.906,
    "kernelCpuSeconds": 7.015,
    "cpuConsumptionPercent": 157.865,
    "maxRss": 2261057536,
    "pageFaults": {
      "IORequired": 990477,
      "IONotRequired": 0
    },
    "fsActivity": {
      "reads": 7657,
      "writes": 6
    }
  },
  "libuv": [
  ],
  "environmentVariables": {
    "=::": "::\\",
    "=C:": "C:\\Users\\asus\\Desktop\\git2\\linkypharm-ui",
    "=ExitCode": "00000000",
    "ALLUSERSPROFILE": "C:\\ProgramData",
    "ANDROID_HOME": "c:\\Users\\asus\\AppData\\Local\\Android\\Sdk",
    "APPDATA": "C:\\Users\\asus\\AppData\\Roaming",
    "asl.log=Destination": "file",
    "ChocolateyInstall": "C:\\ProgramData\\chocolatey",
    "ChocolateyLastPathUpdate": "132039178239456729",
    "CLASSPATH": ".;",
    "CommonProgramFiles": "C:\\Program Files\\Common Files",
    "CommonProgramFiles(x86)": "C:\\Program Files (x86)\\Common Files",
    "CommonProgramW6432": "C:\\Program Files\\Common Files",
    "COMPUTERNAME": "DESKTOP-57IBM0I",
    "ComSpec": "C:\\WINDOWS\\system32\\cmd.exe",
    "DriverData": "C:\\Windows\\System32\\Drivers\\DriverData",
    "HOMEDRIVE": "C:",
    "HOMEPATH": "\\Users\\asus",
    "JAVA_HOME": "C:\\Program Files\\Java\\jdk1.8.0_211",
    "LOCALAPPDATA": "C:\\Users\\asus\\AppData\\Local",
    "LOGONSERVER": "\\\\DESKTOP-57IBM0I",
    "NUMBER_OF_PROCESSORS": "4",
    "OneDrive": "C:\\Users\\asus\\OneDrive",
    "OS": "Windows_NT",
    "Path": "C:\\Python27\\;C:\\Python27\\Scripts;C:\\Program Files (x86)\\Common Files\\Oracle\\Java\\javapath;C:\\ProgramData\\Oracle\\Java\\javapath;C:\\Program Files (x86)\\Intel\\iCLS Client\\;C:\\Program Files\\Intel\\iCLS Client\\;C:\\Windows\\system32;C:\\Windows;C:\\Windows\\System32\\Wbem;C:\\Windows\\System32\\WindowsPowerShell\\v1.0\\;C:\\Program Files (x86)\\Intel\\Intel(R) Management Engine Components\\DAL;C:\\Program Files\\Intel\\Intel(R) Management Engine Components\\DAL;C:\\Program Files (x86)\\Intel\\Intel(R) Management Engine Components\\IPT;C:\\Program Files\\Intel\\Intel(R) Management Engine Components\\IPT;C:\\Program Files (x86)\\NVIDIA Corporation\\PhysX\\Common;C:\\WINDOWS\\system32;C:\\WINDOWS;C:\\WINDOWS\\System32\\Wbem;C:\\WINDOWS\\System32\\WindowsPowerShell\\v1.0\\;C:\\WINDOWS\\System32\\OpenSSH\\;C:\\Program Files (x86)\\Windows Kits\\8.1\\Windows Performance Toolkit\\;C:\\Program Files\\dotnet\\;C:\\ProgramData\\chocolatey\\bin;C:\\Program Files\\nodejs\\;C:\\Program Files\\Java\\jdk1.8.0_211\\bin;C:\\Program Files\\Git\\cmd;C:\\Program Files (x86)\\Yarn\\bin\\;C:\\Ruby26-x64\\bin;C:\\Users\\asus\\AppData\\Local\\Microsoft\\WindowsApps;C:\\Users\\asus\\AppData\\Roaming\\npm;c:\\Users\\asus\\AppData\\Local\\Android\\Sdk\\platform-tools;C:\\Users\\asus\\AppData\\Local\\Yarn\\bin;C:\\Users\\asus\\AppData\\Local\\Programs\\Microsoft VS Code\\bin",
    "PATHEXT": ".COM;.EXE;.BAT;.CMD;.VBS;.VBE;.JSE;.WSF;.WSH;.MSC;.RB;.RBW",
    "PROCESSOR_ARCHITECTURE": "AMD64",
    "PROCESSOR_IDENTIFIER": "Intel64 Family 6 Model 78 Stepping 3, GenuineIntel",
    "PROCESSOR_LEVEL": "6",
    "PROCESSOR_REVISION": "4e03",
    "ProgramData": "C:\\ProgramData",
    "ProgramFiles": "C:\\Program Files",
    "ProgramFiles(x86)": "C:\\Program Files (x86)",
    "ProgramW6432": "C:\\Program Files",
    "PROMPT": "$P$G",
    "PSModulePath": "C:\\Program Files\\WindowsPowerShell\\Modules;C:\\WINDOWS\\system32\\WindowsPowerShell\\v1.0\\Modules",
    "PUBLIC": "C:\\Users\\Public",
    "SESSIONNAME": "Console",
    "SW_SIM_HYDRA": "C:\\Program Files\\Common Files\\SolidWorks Shared\\Simulation Worker Agent\\",
    "SW_SIM_MPIT": "INTELMPI",
    "SW_SIM_TEMP": "C:\\ProgramData\\SOLIDWORKS\\SW_net_sim_temp\\",
    "SystemDrive": "C:",
    "SystemRoot": "C:\\WINDOWS",
    "TEMP": "C:\\Users\\asus\\AppData\\Local\\Temp",
    "TMP": "C:\\Users\\asus\\AppData\\Local\\Temp",
    "USERDOMAIN": "DESKTOP-57IBM0I",
    "USERDOMAIN_ROAMINGPROFILE": "DESKTOP-57IBM0I",
    "USERNAME": "asus",
    "USERPROFILE": "C:\\Users\\asus",
    "windir": "C:\\WINDOWS"
  },
  "sharedObjects": [
    "C:\\Program Files\\nodejs\\node.exe",
    "C:\\WINDOWS\\SYSTEM32\\ntdll.dll",
    "C:\\WINDOWS\\System32\\KERNEL32.DLL",
    "C:\\WINDOWS\\System32\\KERNELBASE.dll",
    "C:\\WINDOWS\\System32\\WS2_32.dll",
    "C:\\WINDOWS\\System32\\RPCRT4.dll",
    "C:\\WINDOWS\\System32\\ADVAPI32.dll",
    "C:\\WINDOWS\\System32\\msvcrt.dll",
    "C:\\WINDOWS\\System32\\sechost.dll",
    "C:\\WINDOWS\\SYSTEM32\\dbghelp.dll",
    "C:\\WINDOWS\\System32\\USER32.dll",
    "C:\\WINDOWS\\System32\\ucrtbase.dll",
    "C:\\WINDOWS\\System32\\win32u.dll",
    "C:\\WINDOWS\\System32\\GDI32.dll",
    "C:\\WINDOWS\\System32\\gdi32full.dll",
    "C:\\WINDOWS\\System32\\msvcp_win.dll",
    "C:\\WINDOWS\\System32\\PSAPI.DLL",
    "C:\\WINDOWS\\System32\\CRYPT32.dll",
    "C:\\WINDOWS\\System32\\MSASN1.dll",
    "C:\\WINDOWS\\SYSTEM32\\IPHLPAPI.DLL",
    "C:\\WINDOWS\\SYSTEM32\\USERENV.dll",
    "C:\\WINDOWS\\SYSTEM32\\bcrypt.dll",
    "C:\\WINDOWS\\SYSTEM32\\WINMM.dll",
    "C:\\WINDOWS\\System32\\profapi.dll",
    "C:\\WINDOWS\\SYSTEM32\\winmmbase.dll",
    "C:\\WINDOWS\\System32\\cfgmgr32.dll",
    "C:\\WINDOWS\\System32\\IMM32.DLL",
    "C:\\WINDOWS\\System32\\powrprof.dll",
    "C:\\WINDOWS\\system32\\uxtheme.dll",
    "C:\\WINDOWS\\System32\\combase.dll",
    "C:\\WINDOWS\\System32\\bcryptPrimitives.dll",
    "C:\\WINDOWS\\system32\\mswsock.dll",
    "C:\\WINDOWS\\System32\\kernel.appcore.dll",
    "\\\\?\\C:\\Users\\asus\\Desktop\\git2\\linkypharm-ui\\node_modules\\node-sass\\vendor\\win32-x64-72\\binding.node",
    "C:\\WINDOWS\\SYSTEM32\\CRYPTBASE.DLL",
    "C:\\WINDOWS\\system32\\napinsp.dll",
    "C:\\WINDOWS\\system32\\pnrpnsp.dll",
    "C:\\WINDOWS\\system32\\NLAapi.dll",
    "C:\\WINDOWS\\SYSTEM32\\DNSAPI.dll",
    "C:\\WINDOWS\\System32\\NSI.dll",
    "C:\\WINDOWS\\System32\\winrnr.dll",
    "C:\\WINDOWS\\System32\\wshbth.dll"
  ]
}