{
  "name": "personne",
  "base": "PersistedModel",
  "idInjection": true,
  "options": {
    "validateUpsert": true
  },
  "properties": {
    "name": {
      "type": "string",
      "required": true
    },
    "firstname": {
      "type": "string",
      "required": true
    },
    "cin": {
      "type": "number"
    },
    "job": {
      "type": "string"
    },
    "path": {
      "type": "string"
    },
    "age": {
      "type": "number"
    }
  },
  "validations": [],
  "relations": {},
  "acls": [
    {
      "accessType": "WRITE",
      "principalType": "ROLE",
      "principalId": "$unauthenticated",
      "permission": "DENY"
    }
  ],
  "methods": {}
}
